{
  "fields": [
    {
      "name":"E-Mail",
      "fieldName":"username",
      "value":"Penguin"
    },
    {
      "name":"Password",
      "fieldName":"password",
      "value":"Password1"
    }
  ],
  "url":"website_you_want_to_test",
  "login_path":"/#/login",
  "login_btn_name":"button_login_submit"
}
